<?xml version="1.0" encoding="UTF-8" standalone="no"?>
<svg
   xmlns:dc="http://purl.org/dc/elements/1.1/"
   xmlns:cc="http://creativecommons.org/ns#"
   xmlns:rdf="http://www.w3.org/1999/02/22-rdf-syntax-ns#"
   xmlns:svg="http://www.w3.org/2000/svg"
   xmlns="http://www.w3.org/2000/svg"
   xmlns:sodipodi="http://sodipodi.sourceforge.net/DTD/sodipodi-0.dtd"
   xmlns:inkscape="http://www.inkscape.org/namespaces/inkscape"
   version="1.1"
   id="svg893"
   width="128"
   height="128"
   viewBox="0 0 128 128"
   sodipodi:docname="icon_rotate_90_anticlockwise.svg"
   inkscape:version="1.0.1 (3bc2e813f5, 2020-09-07)"
   inkscape:export-filename="/home/ronan/Workspace_cpp/valentina/src/app/puzzle/share/resources/puzzleicon/64x64/cursorRotate@2x.png"
   inkscape:export-xdpi="96"
   inkscape:export-ydpi="96">
  <metadata
     id="metadata899">
    <rdf:RDF>
      <cc:Work
         rdf:about="">
        <dc:format>image/svg+xml</dc:format>
        <dc:type
           rdf:resource="http://purl.org/dc/dcmitype/StillImage" />
        <dc:title></dc:title>
      </cc:Work>
    </rdf:RDF>
  </metadata>
  <defs
     id="defs897" />
  <sodipodi:namedview
     pagecolor="#ffffff"
     bordercolor="#666666"
     borderopacity="1"
     objecttolerance="10"
     gridtolerance="10"
     guidetolerance="10"
     inkscape:pageopacity="0"
     inkscape:pageshadow="2"
     inkscape:window-width="1920"
     inkscape:window-height="1043"
     id="namedview895"
     showgrid="false"
     inkscape:zoom="1.9070797"
     inkscape:cx="-10.361902"
     inkscape:cy="69.818165"
     inkscape:window-x="1920"
     inkscape:window-y="0"
     inkscape:window-maximized="1"
     inkscape:current-layer="g901"
     showguides="false"
     inkscape:lockguides="false"
     inkscape:document-rotation="0" />
  <g
     inkscape:groupmode="layer"
     inkscape:label="Image"
     id="g901">
    <path
       id="path1502"
       style="color:#000000;font-style:normal;font-variant:normal;font-weight:normal;font-stretch:normal;font-size:medium;line-height:normal;font-family:sans-serif;font-variant-ligatures:normal;font-variant-position:normal;font-variant-caps:normal;font-variant-numeric:normal;font-variant-alternates:normal;font-variant-east-asian:normal;font-feature-settings:normal;font-variation-settings:normal;text-indent:0;text-align:start;text-decoration:none;text-decoration-line:none;text-decoration-style:solid;text-decoration-color:#000000;letter-spacing:normal;word-spacing:normal;text-transform:none;writing-mode:lr-tb;direction:ltr;text-orientation:mixed;dominant-baseline:auto;baseline-shift:baseline;text-anchor:start;white-space:normal;shape-padding:0;shape-margin:0;inline-size:0;clip-rule:nonzero;display:inline;overflow:visible;visibility:visible;opacity:1;isolation:auto;mix-blend-mode:normal;color-interpolation:sRGB;color-interpolation-filters:linearRGB;solid-color:#000000;solid-opacity:1;vector-effect:none;fill:#000000;fill-opacity:1;fill-rule:nonzero;stroke:none;stroke-width:16.3619;stroke-linecap:butt;stroke-linejoin:miter;stroke-miterlimit:4;stroke-dasharray:none;stroke-dashoffset:0;stroke-opacity:1;color-rendering:auto;image-rendering:auto;shape-rendering:auto;text-rendering:auto;enable-background:accumulate;stop-color:#000000;stop-opacity:1"
       d="M 55.896493,2.9375026 C 33.6579,6.5065667 18.949296,20.13637 11.102943,39.261394 L 0.54579357,31.704504 9.2043998,61.438917 33.336678,43.163337 20.178057,41.964226 C 26.09616,28.336396 41.286906,13.618412 57.166066,10.475466 83.491044,5.26499 118.31674,25.305285 118.92695,54.737111 c 3.26906,-0.0857 5.15084,-0.118802 8.51053,-0.256065 C 127.26422,20.979551 89.86429,-2.5139775 55.896493,2.9375026 Z"
       sodipodi:nodetypes="scccccsccs" />
    <text
       xml:space="preserve"
       style="font-style:normal;font-weight:normal;font-size:80.5149px;line-height:1.25;font-family:sans-serif;letter-spacing:0px;word-spacing:0px;fill:#000000;fill-opacity:1;stroke:none;stroke-width:1.25804"
       x="27.286873"
       y="104.23756"
       id="text1480"
       transform="scale(0.94780675,1.0550674)"><tspan
         sodipodi:role="line"
         id="tspan1478"
         x="27.286873"
         y="104.23756"
         style="font-style:normal;font-variant:normal;font-weight:normal;font-stretch:normal;font-size:80.5149px;font-family:Garuda;-inkscape-font-specification:Garuda;stroke-width:1.25804">90</tspan></text>
  </g>
</svg>
